Calculating pairwise scores using bullseye.
…
sc_dcor is a tibble of class pairwise, with
the two variables in columns x and y (arranged
in alphabetical order), calculated values in the column
value, and the name of the score calculated in the column
score. All of the variables are numeric, hence “nn” in the
pair_type column.

Similarly, one can use pair_nmi to calculate normalised
mutual information for numeric, factor and mixed pairs of variables.

sc_nmi <- pair_nmi(penguins)
sc_nmi
#> # A tibble: 28 × 6
#>    x                 y                 score group  value pair_type
#>    <chr>             <chr>             <chr> <chr>  <dbl> <chr>    
#>  1 bill_depth_mm     bill_length_mm    nmi   all   0.225  nn       
#>  2 bill_length_mm    flipper_length_mm nmi   all   0.375  nn       
#>  3 bill_depth_mm     flipper_length_mm nmi   all   0.470  nn       
#>  4 body_mass_g       flipper_length_mm nmi   all   0.581  nn       
#>  5 bill_length_mm    body_mass_g       nmi   all   0.303  nn       
#>  6 bill_depth_mm     body_mass_g       nmi   all   0.443  nn       
#>  7 bill_length_mm    year              nmi   all   0.0517 nn       
#>  8 bill_depth_mm     year              nmi   all   0.0387 nn       
#>  9 flipper_length_mm year              nmi   all   0.0707 nn       
#> 10 body_mass_g       year              nmi   all   0.0445 nn       
#> # ℹ 18 more rows
…
Calculating multiple measures

If you want for instance to compare distance correlation and mutual
information measures in a display, two pairwise data
structures can be combined:

bind_rows(sc_dcor, sc_nmi) |> arrange(x,y)
#> # A tibble: 38 × 6
#>    x             y                 score group value pair_type
#>    <chr>         <chr>             <chr> <chr> <dbl> <chr>    
#>  1 bill_depth_mm bill_length_mm    dcor  all   0.387 nn       
#>  2 bill_depth_mm bill_length_mm    nmi   all   0.225 nn       
#>  3 bill_depth_mm body_mass_g       dcor  all   0.614 nn       
#>  4 bill_depth_mm body_mass_g       nmi   all   0.443 nn       
#>  5 bill_depth_mm flipper_length_mm dcor  all   0.704 nn       
#>  6 bill_depth_mm flipper_length_mm nmi   all   0.470 nn       
#>  7 bill_depth_mm island            nmi   all   0.282 fn       
#>  8 bill_depth_mm sex               nmi   all   0.356 fn       
#>  9 bill_depth_mm species           nmi   all   0.493 fn       
#> 10 bill_depth_mm year              dcor  all   0.112 nn       
#> # ℹ 28 more rows

We provide another function pairwise_multi which
calculates multiple association measures for every variable pair in a
dataset. By default this function combines the results of
pair_cor,
pair_dcor,pair_mine,pair_ace,
pair_cancor,pair_nmi,pair_uncertainty,
pair_chi, but any subset of the pair_
functions may be supplied as an argument, as in the second example
below.

pairwise_multi(penguins)
#> # A tibble: 130 × 6
#>    x             y              score    group  value pair_type
#>    <chr>         <chr>          <chr>    <chr>  <dbl> <chr>    
#>  1 bill_depth_mm bill_length_mm pearson  all   -0.235 nn       
#>  2 bill_depth_mm bill_length_mm spearman all   -0.222 nn       
#>  3 bill_depth_mm bill_length_mm dcor     all    0.387 nn       
#>  4 bill_depth_mm bill_length_mm MIC      all    0.313 nn       
#>  5 bill_depth_mm bill_length_mm ace      all    0.585 nn       
#>  6 bill_depth_mm bill_length_mm cancor   all    0.235 nn       
#>  7 bill_depth_mm bill_length_mm nmi      all    0.225 nn       
#>  8 bill_depth_mm body_mass_g    pearson  all   -0.472 nn       
#>  9 bill_depth_mm body_mass_g    spearman all   -0.432 nn       
#> 10 bill_depth_mm body_mass_g    dcor     all    0.614 nn       
#> # ℹ 120 more rows
…
Calculating grouped measures

For each of the pairwise calculation functions, they can be wrapped
using pairwise_by to build a score calculation for each
level of a grouping variable. Of course, grouped scores could be
calculated using dplyr machinery, but it is a bit more
work.

pairwise_by(penguins, by="species", pair_cor)
#> Warning: Variable island of data for group species = Chinstrap has at most one unique
#> value, discounting NA.
#> Warning: Variable island of data for group species = Gentoo has at most one unique
#> value, discounting NA.
#> # A tibble: 40 × 6
#>    x             y                 score   group      value pair_type
#>    <chr>         <chr>             <chr>   <fct>      <dbl> <chr>    
#>  1 bill_depth_mm bill_length_mm    pearson Adelie     0.391 nn       
#>  2 bill_depth_mm bill_length_mm    pearson Chinstrap  0.654 nn       
#>  3 bill_depth_mm bill_length_mm    pearson Gentoo     0.643 nn       
#>  4 bill_depth_mm bill_length_mm    pearson all       -0.235 nn       
#>  5 bill_depth_mm body_mass_g       pearson Adelie     0.576 nn       
#>  6 bill_depth_mm body_mass_g       pearson Chinstrap  0.604 nn       
#>  7 bill_depth_mm body_mass_g       pearson Gentoo     0.719 nn       
#>  8 bill_depth_mm body_mass_g       pearson all       -0.472 nn       
#>  9 bill_depth_mm flipper_length_mm pearson Adelie     0.308 nn       
#> 10 bill_depth_mm flipper_length_mm pearson Chinstrap  0.580 nn       
#> # ℹ 30 more rows
…
Both of the functions pairwise_by and
pairwise_scores have an additional argument
add.nobs. When this is set to TRUE, the pairwise structure
has an additional column giving the number of observations used in the
calculation of each score.

This is potentially useful information in the presence of imbalanced
data or with missing values.

pairwise_scores(penguins, by="species",add.nobs=TRUE) 
#> Warning: Variable island of data for group species = Chinstrap has at most one unique
#> value, discounting NA.
#> Warning: Variable island of data for group species = Gentoo has at most one unique
#> value, discounting NA.
#> # A tibble: 84 × 7
#>    x                 y      score  group   value pair_type     n
#>    <chr>             <chr>  <chr>  <fct>   <dbl> <chr>     <int>
#>  1 island            sex    cancor Adelie 0.0164 ff          146
#>  2 bill_length_mm    island cancor Adelie 0.0838 fn          151
#>  3 bill_depth_mm     island cancor Adelie 0.0629 fn          151
#>  4 flipper_length_mm island cancor Adelie 0.148  fn          151
#>  5 body_mass_g       island cancor Adelie 0.0208 fn          151
#>  6 bill_length_mm    sex    cancor Adelie 0.590  fn          146
#>  7 bill_depth_mm     sex    cancor Adelie 0.597  fn          146
#>  8 flipper_length_mm sex    cancor Adelie 0.355  fn          146
#>  9 body_mass_g       sex    cancor Adelie 0.738  fn          146
#> 10 island            year   cancor Adelie 0.104  fn          152
#> # ℹ 74 more rows
…
Note that the first two variables of the penguins data are
non-numeric and so are ignored in the above calculation.

For group-wise calculation:

pairwise_by(penguins[,1:5], by="species",function(x) pair_scagnostics(x, scagnostic=c("Stringy", "Clumpy")))
#> Warning: Variable island of data for group species = Chinstrap has at most one unique
#> value, discounting NA.
#> Warning: Variable island of data for group species = Gentoo has at most one unique
#> value, discounting NA.
#> # A tibble: 24 × 6
#>    x             y                 score   group      value pair_type
#>    <chr>         <chr>             <chr>   <fct>      <dbl> <chr>    
#>  1 bill_depth_mm bill_length_mm    Stringy Adelie    0.278  nn       
#>  2 bill_depth_mm bill_length_mm    Clumpy  Adelie    0.0477 nn       
#>  3 bill_depth_mm bill_length_mm    Stringy Chinstrap 0.325  nn       
#>  4 bill_depth_mm bill_length_mm    Clumpy  Chinstrap 0.0758 nn       
#>  5 bill_depth_mm bill_length_mm    Stringy Gentoo    0.393  nn       
#>  6 bill_depth_mm bill_length_mm    Clumpy  Gentoo    0.0579 nn       
#>  7 bill_depth_mm bill_length_mm    Stringy all       0.331  nn       
#>  8 bill_depth_mm bill_length_mm    Clumpy  all       0.0328 nn       
#>  9 bill_depth_mm flipper_length_mm Stringy Adelie    0.392  nn       
#> 10 bill_depth_mm flipper_length_mm Clumpy  Adelie    0.0598 nn       
#> # ℹ 14 more rows
…
